{
 "creation": "2020-05-07 18:43:19.995451",
 "doctype": "DocType",
 "editable_grid": 1,
 "engine": "InnoDB",
 "field_order": [
  "employee",
  "employee_name",
  "over_timein_hours",
  "over_time_days",
  "allowed_leave",
  "absent",
  "work_on_holiday",
  "holiday_working_hours",
  "normal_hours",
  "regular_hours_per_day",
  "column_break_11",
  "basic_pay",
  "per_day_pay",
  "over_time_amount",
  "holiday_amount",
  "absent_amount",
  "bonus_amount"
 ],
 "fields": [
  {
   "fieldname": "employee",
   "fieldtype": "Link",
   "in_list_view": 1,
   "label": "Employee",
   "options": "Employee"
  },
  {
   "fieldname": "over_timein_hours",
   "fieldtype": "Float",
   "label": "Over Time(In Hours)"
  },
  {
   "fieldname": "over_time_days",
   "fieldtype": "Float",
   "label": "Over Time Days"
  },
  {
   "fieldname": "allowed_leave",
   "fieldtype": "Float",
   "label": "Allowed Leave"
  },
  {
   "fieldname": "absent",
   "fieldtype": "Float",
   "label": "Absent"
  },
  {
   "fieldname": "normal_hours",
   "fieldtype": "Float",
   "hidden": 1,
   "label": "Normal Hours",
   "read_only": 1
  },
  {
   "fieldname": "holiday_amount",
   "fieldtype": "Float",
   "in_list_view": 1,
   "label": "Holiday Amount",
   "read_only": 1
  },
  {
   "fieldname": "per_day_pay",
   "fieldtype": "Float",
   "label": "Per Day Pay",
   "read_only": 1
  },
  {
   "fieldname": "work_on_holiday",
   "fieldtype": "Float",
   "label": "Work On Holiday"
  },
  {
   "fieldname": "basic_pay",
   "fieldtype": "Float",
   "label": "Basic Pay",
   "read_only": 1
  },
  {
   "fieldname": "over_time_amount",
   "fieldtype": "Float",
   "in_list_view": 1,
   "label": "Over time Amount",
   "read_only": 1
  },
  {
   "fieldname": "regular_hours_per_day",
   "fieldtype": "Float",
   "hidden": 1,
   "label": "Regular Hours per Day",
   "read_only": 1
  },
  {
   "fieldname": "holiday_working_hours",
   "fieldtype": "Float",
   "hidden": 1,
   "label": "Holiday Working Hours"
  },
  {
   "fieldname": "absent_amount",
   "fieldtype": "Float",
   "in_list_view": 1,
   "label": "Absent Amount",
   "read_only": 1
  },
  {
   "fetch_from": "employee.employee_name",
   "fieldname": "employee_name",
   "fieldtype": "Data",
   "label": "Employee Name",
   "read_only": 1
  },
  {
   "fieldname": "column_break_11",
   "fieldtype": "Column Break"
  },
  {
   "fieldname": "bonus_amount",
   "fieldtype": "Float",
   "in_list_view": 1,
   "label": "Bonus Amount"
  }
 ],
 "istable": 1,
 "modified": "2020-12-16 20:58:44.385811",
 "modified_by": "shivambpatel10@gmail.com",
 "module": "Hr Enhancement",
 "name": "Component Details",
 "owner": "Administrator",
 "permissions": [],
 "quick_entry": 1,
 "sort_field": "modified",
 "sort_order": "DESC",
 "track_changes": 1
}